src/i2s/output.vcd
$date
  Fri Apr 13 09:54:58 2018
$end
$version
  GHDL v0
$end
$timescale
  1 fs
$end
$var reg 1 ! clk $end
$var reg 1 " enable $end
$var reg 3 # addresse[2:0] $end
$var reg 16 $ data[15:0] $end
$var reg 1 % mclk $end
$var reg 1 & lrck $end
$var reg 1 ' sd $end
$var reg 1 ( sck $end
$scope module uut $end
$var reg 1 ) clock $end
$var reg 1 * nreset $end
$var reg 3 + addresse[2:0] $end
$var reg 1 , chip_select $end
$var reg 1 - write $end
$var reg 16 . write_data[15:0] $end
$var reg 1 / gpio_2_d0 $end
$var reg 1 0 gpio_2_d1 $end
$var reg 1 1 gpio_2_d2 $end
$var reg 1 2 gpio_2_d3 $end
$var reg 8 3 iregctrl[7:0] $end
$var reg 32 4 iregdata[31:0] $end
$scope module i2s_comp $end
$var reg 1 5 clock $end
$var reg 1 6 enable $end
$var reg 32 7 data[31:0] $end
$var reg 1 8 mclk $end
$var reg 1 9 lrck $end
$var reg 1 : sd $end
$var reg 1 ; sck $end
$var reg 8 < lrck_c[7:0] $end
$var reg 2 = sck_c[1:0] $end
$var reg 3 > data_c[2:0] $end
$var integer 32 ? bit_count $end
$var reg 1 @ blrck $end
$var reg 1 A bsck $end
$upscope $end
$upscope $end
$enddefinitions $end
#0
0!
0"
b000 #
b0000000000000001 $
0%
0&
0'
0(
0)
1*
b000 +
1,
1-
b0000000000000001 .
0/
00
01
02
b00000000 3
b00000000000000000000000000000000 4
05
06
b00000000000000000000000000000000 7
08
09
0:
0;
b00000000 <
b00 =
b000 >
b0 ?
0@
0A
#10000000
1!
1%
1)
1/
b00000001 3
15
16
18
#20000000
0!
0%
0)
0/
05
08
#30000000
1!
1%
1(
1)
1/
12
15
18
1;
b00000001 <
b01 =
b001 >
1A
#40000000
0!
0%
0)
0/
05
08
#50000000
1!
1%
0(
1)
1/
02
15
18
0;
b00000010 <
b10 =
b000 >
b1 ?
0A
#60000000
0!
0%
0)
0/
05
08
#70000000
1!
1%
1(
1)
1/
12
15
18
1;
b00000011 <
b11 =
b001 >
1A
#80000000
0!
0%
0)
0/
05
08
#90000000
1!
1%
0(
1)
1/
02
15
18
0;
b00000100 <
b00 =
b000 >
b10 ?
0A
#100000000
0!
0%
0)
0/
05
08
#110000000
1!
1%
1(
1)
1/
12
15
18
1;
b00000101 <
b01 =
b001 >
1A
#120000000
0!
0%
0)
0/
05
08
#130000000
1!
1%
0(
1)
1/
02
15
18
0;
b00000110 <
b10 =
b000 >
b11 ?
0A
#140000000
0!
0%
0)
0/
05
08
#150000000
1!
1%
1(
1)
1/
12
15
18
1;
b00000111 <
b11 =
b001 >
1A
#160000000
0!
0%
0)
0/
05
08
#170000000
1!
1%
0(
1)
1/
02
15
18
0;
b00001000 <
b00 =
b000 >
b100 ?
0A
#180000000
0!
0%
0)
0/
05
08
#190000000
1!
1%
1(
1)
1/
12
15
18
1;
b00001001 <
b01 =
b001 >
1A
#200000000
0!
1"
0%
0)
0/
05
08
#210000000
1!
1%
0(
1)
1/
02
15
18
0;
b00001010 <
b10 =
b000 >
b101 ?
0A
#220000000
0!
0%
0)
0/
05
08
#230000000
1!
1%
1(
1)
1/
12
15
18
1;
b00001011 <
b11 =
b001 >
1A
#240000000
0!
0%
0)
0/
05
08
#250000000
1!
1%
0(
1)
1/
02
15
18
0;
b00001100 <
b00 =
b000 >
b110 ?
0A
#260000000
0!
0%
0)
0/
05
08
#270000000
1!
1%
1(
1)
1/
12
15
18
1;
b00001101 <
b01 =
b001 >
1A
#280000000
0!
0%
0)
0/
05
08
#290000000
1!
1%
0(
1)
1/
02
15
18
0;
b00001110 <
b10 =
b000 >
b111 ?
0A
#300000000
0!
0%
0)
0/
05
08
#310000000
1!
1%
1(
1)
1/
12
15
18
1;
b00001111 <
b11 =
b001 >
1A
#320000000
0!
0%
0)
0/
05
08
#330000000
1!
1%
0(
1)
1/
02
15
18
0;
b00010000 <
b00 =
b000 >
b1000 ?
0A
#340000000
0!
0%
0)
0/
05
08
#350000000
1!
1%
1(
1)
1/
12
15
18
1;
b00010001 <
b01 =
b001 >
1A
#360000000
0!
0%
0)
0/
05
08
#370000000
1!
1%
0(
1)
1/
02
15
18
0;
b00010010 <
b10 =
b000 >
b1001 ?
0A
#380000000
0!
0%
0)
0/
05
08
#390000000
1!
1%
1(
1)
1/
12
15
18
1;
b00010011 <
b11 =
b001 >
1A
#400000000
0!
0%
0)
0/
05
08
#410000000
1!
1%
0(
1)
1/
02
15
18
0;
b00010100 <
b00 =
b000 >
b1010 ?
0A
#420000000
0!
0%
0)
0/
05
08
#430000000
1!
1%
1(
1)
1/
12
15
18
1;
b00010101 <
b01 =
b001 >
1A
#440000000
0!
0%
0)
0/
05
08
#450000000
1!
1%
0(
1)
1/
02
15
18
0;
b00010110 <
b10 =
b000 >
b1011 ?
0A
#460000000
0!
0%
0)
0/
05
08
#470000000
1!
1%
1(
1)
1/
12
15
18
1;
b00010111 <
b11 =
b001 >
1A
#480000000
0!
0%
0)
0/
05
08
#490000000
1!
1%
0(
1)
1/
02
15
18
0;
b00011000 <
b00 =
b000 >
b1100 ?
0A
#500000000
0!
0%
0)
0/
05
08
#510000000
1!
1%
1(
1)
1/
12
15
18
1;
b00011001 <
b01 =
b001 >
1A
#520000000
0!
0%
0)
0/
05
08
#530000000
1!
1%
0(
1)
1/
02
15
18
0;
b00011010 <
b10 =
b000 >
b1101 ?
0A
#540000000
0!
0%
0)
0/
05
08
#550000000
1!
1%
1(
1)
1/
12
15
18
1;
b00011011 <
b11 =
b001 >
1A
#560000000
0!
0%
0)
0/
05
08
#570000000
1!
1%
0(
1)
1/
02
15
18
0;
b00011100 <
b00 =
b000 >
b1110 ?
0A
#580000000
0!
0%
0)
0/
05
08
#590000000
1!
1%
1(
1)
1/
12
15
18
1;
b00011101 <
b01 =
b001 >
1A
#600000000
0!
0%
0)
0/
05
08
#610000000
1!
1%
0(
1)
1/
02
15
18
0;
b00011110 <
b10 =
b000 >
b1111 ?
0A
#620000000
0!
0%
0)
0/
05
08
#630000000
1!
1%
1(
1)
1/
12
15
18
1;
b00011111 <
b11 =
b001 >
1A
#640000000
0!
0%
0)
0/
05
08
#650000000
1!
1%
1&
0(
1)
1/
10
02
15
18
19
0;
b00000000 <
b00 =
b000 >
b10000 ?
1@
0A
#660000000
0!
0%
0)
0/
05
08
#670000000
1!
1%
1(
1)
1/
12
15
18
1;
b00000001 <
b01 =
b001 >
1A
#680000000
0!
0%
0)
0/
05
08
#690000000
1!
1%
0(
1)
1/
02
15
18
0;
b00000010 <
b10 =
b000 >
b10001 ?
0A
#700000000
0!
0%
0)
0/
05
08
#710000000
1!
1%
1(
1)
1/
12
15
18
1;
b00000011 <
b11 =
b001 >
1A
#720000000
0!
0%
0)
0/
05
08
#730000000
1!
1%
0(
1)
1/
02
15
18
0;
b00000100 <
b00 =
b000 >
b10010 ?
0A
#740000000
0!
0%
0)
0/
05
08
#750000000
1!
1%
1(
1)
1/
12
15
18
1;
b00000101 <
b01 =
b001 >
1A
#760000000
0!
0%
0)
0/
05
08
#770000000
1!
1%
0(
1)
1/
02
15
18
0;
b00000110 <
b10 =
b000 >
b10011 ?
0A
#780000000
0!
0%
0)
0/
05
08
#790000000
1!
1%
1(
1)
1/
12
15
18
1;
b00000111 <
b11 =
b001 >
1A
#800000000
0!
0%
0)
0/
05
08
#810000000
1!
1%
0(
1)
1/
02
15
18
0;
b00001000 <
b00 =
b000 >
b10100 ?
0A
#820000000
0!
0%
0)
0/
05
08
#830000000
1!
1%
1(
1)
1/
12
15
18
1;
b00001001 <
b01 =
b001 >
1A
#840000000
0!
0%
0)
0/
05
08
#850000000
1!
1%
0(
1)
1/
02
15
18
0;
b00001010 <
b10 =
b000 >
b10101 ?
0A
#860000000
0!
0%
0)
0/
05
08
#870000000
1!
1%
1(
1)
1/
12
15
18
1;
b00001011 <
b11 =
b001 >
1A
#880000000
0!
0%
0)
0/
05
08
#890000000
1!
1%
0(
1)
1/
02
15
18
0;
b00001100 <
b00 =
b000 >
b10110 ?
0A
#900000000
0!
0%
0)
0/
05
08
#910000000
1!
1%
1(
1)
1/
12
15
18
1;
b00001101 <
b01 =
b001 >
1A
#920000000
0!
0%
0)
0/
05
08
#930000000
1!
1%
0(
1)
1/
02
15
18
0;
b00001110 <
b10 =
b000 >
b10111 ?
0A
#940000000
0!
0%
0)
0/
05
08
#950000000
1!
1%
1(
1)
1/
12
15
18
1;
b00001111 <
b11 =
b001 >
1A
#960000000
0!
0%
0)
0/
05
08
#970000000
1!
1%
0(
1)
1/
02
15
18
0;
b00010000 <
b00 =
b000 >
b11000 ?
0A
#980000000
0!
0%
0)
0/
05
08
#990000000
1!
1%
1(
1)
1/
12
15
18
1;
b00010001 <
b01 =
b001 >
1A
#1000000000
0!
0%
0)
0/
05
08
#1010000000
1!
1%
0(
1)
1/
02
15
18
0;
b00010010 <
b10 =
b000 >
b11001 ?
0A
#1020000000
0!
0%
0)
0/
05
08
#1030000000
1!
1%
1(
1)
1/
12
15
18
1;
b00010011 <
b11 =
b001 >
1A
#1040000000
0!
0%
0)
0/
05
08
#1050000000
1!
1%
0(
1)
1/
02
15
18
0;
b00010100 <
b00 =
b000 >
b11010 ?
0A
#1060000000
0!
0%
0)
0/
05
08
#1070000000
1!
1%
1(
1)
1/
12
15
18
1;
b00010101 <
b01 =
b001 >
1A
#1080000000
0!
0%
0)
0/
05
08
#1090000000
1!
1%
0(
1)
1/
02
15
18
0;
b00010110 <
b10 =
b000 >
b11011 ?
0A
#1100000000
0!
0%
0)
0/
05
08
#1110000000
1!
1%
1(
1)
1/
12
15
18
1;
b00010111 <
b11 =
b001 >
1A
#1120000000
0!
0%
0)
0/
05
08
#1130000000
1!
1%
0(
1)
1/
02
15
18
0;
b00011000 <
b00 =
b000 >
b11100 ?
0A
#1140000000
0!
0%
0)
0/
05
08
#1150000000
1!
1%
1(
1)
1/
12
15
18
1;
b00011001 <
b01 =
b001 >
1A
#1160000000
0!
0%
0)
0/
05
08
#1170000000
1!
1%
0(
1)
1/
02
15
18
0;
b00011010 <
b10 =
b000 >
b11101 ?
0A
#1180000000
0!
0%
0)
0/
05
08
#1190000000
1!
1%
1(
1)
1/
12
15
18
1;
b00011011 <
b11 =
b001 >
1A
#1200000000
0!
0%
0)
0/
05
08
#1210000000
1!
1%
0(
1)
1/
02
15
18
0;
b00011100 <
b00 =
b000 >
b11110 ?
0A
#1220000000
0!
0%
0)
0/
05
08
#1230000000
1!
1%
1(
1)
1/
12
15
18
1;
b00011101 <
b01 =
b001 >
1A
#1240000000
0!
0%
0)
0/
05
08
#1250000000
1!
1%
0(
1)
1/
02
15
18
0;
b00011110 <
b10 =
b000 >
b11111 ?
0A
#1260000000
0!
0%
0)
0/
05
08
#1270000000
1!
1%
1(
1)
1/
12
15
18
1;
b00011111 <
b11 =
b001 >
1A
#1280000000
0!
0%
0)
0/
05
08
#1290000000
1!
1%
0&
0(
1)
1/
00
02
15
18
09
0;
b00000000 <
b00 =
b000 >
b0 ?
0@
0A
#1300000000
0!
0%
0)
0/
05
08
#1310000000
1!
1%
1(
1)
1/
12
15
18
1;
b00000001 <
b01 =
b001 >
1A
#1320000000
0!
0%
0)
0/
05
08
#1330000000
1!
1%
0(
1)
1/
02
15
18
0;
b00000010 <
b10 =
b000 >
b1 ?
0A
#1340000000
0!
0%
0)
0/
05
08
#1350000000
1!
1%
1(
1)
1/
12
15
18
1;
b00000011 <
b11 =
b001 >
1A
#1360000000
0!
0%
0)
0/
05
08
#1370000000
1!
1%
0(
1)
1/
02
15
18
0;
b00000100 <
b00 =
b000 >
b10 ?
0A
#1380000000
0!
0%
0)
0/
05
08
#1390000000
1!
1%
1(
1)
1/
12
15
18
1;
b00000101 <
b01 =
b001 >
1A
#1400000000
0!
0%
0)
0/
05
08
#1410000000
1!
1%
0(
1)
1/
02
15
18
0;
b00000110 <
b10 =
b000 >
b11 ?
0A
#1420000000
0!
0%
0)
0/
05
08
#1430000000
1!
1%
1(
1)
1/
12
15
18
1;
b00000111 <
b11 =
b001 >
1A
#1440000000
0!
0%
0)
0/
05
08
#1450000000
1!
1%
0(
1)
1/
02
15
18
0;
b00001000 <
b00 =
b000 >
b100 ?
0A
#1460000000
0!
0%
0)
0/
05
08
#1470000000
1!
1%
1(
1)
1/
12
15
18
1;
b00001001 <
b01 =
b001 >
1A
#1480000000
0!
0%
0)
0/
05
08
#1490000000
1!
1%
0(
1)
1/
02
15
18
0;
b00001010 <
b10 =
b000 >
b101 ?
0A
#1500000000
0!
0%
0)
0/
05
08
#1510000000
1!
1%
1(
1)
1/
12
15
18
1;
b00001011 <
b11 =
b001 >
1A
#1520000000
0!
0%
0)
0/
05
08
#1530000000
1!
1%
0(
1)
1/
02
15
18
0;
b00001100 <
b00 =
b000 >
b110 ?
0A
#1540000000
0!
0%
0)
0/
05
08
#1550000000
1!
1%
1(
1)
1/
12
15
18
1;
b00001101 <
b01 =
b001 >
1A
#1560000000
0!
0%
0)
0/
05
08
#1570000000
1!
1%
0(
1)
1/
02
15
18
0;
b00001110 <
b10 =
b000 >
b111 ?
0A
#1580000000
0!
0%
0)
0/
05
08
#1590000000
1!
1%
1(
1)
1/
12
15
18
1;
b00001111 <
b11 =
b001 >
1A
#1600000000
0!
0%
0)
0/
05
08
#1610000000
1!
1%
0(
1)
1/
02
15
18
0;
b00010000 <
b00 =
b000 >
b1000 ?
0A
#1620000000
0!
0%
0)
0/
05
08
#1630000000
1!
1%
1(
1)
1/
12
15
18
1;
b00010001 <
b01 =
b001 >
1A
#1640000000
0!
0%
0)
0/
05
08
#1650000000
1!
1%
0(
1)
1/
02
15
18
0;
b00010010 <
b10 =
b000 >
b1001 ?
0A
#1660000000
0!
0%
0)
0/
05
08
#1670000000
1!
1%
1(
1)
1/
12
15
18
1;
b00010011 <
b11 =
b001 >
1A
#1680000000
0!
0%
0)
0/
05
08
#1690000000
1!
1%
0(
1)
1/
02
15
18
0;
b00010100 <
b00 =
b000 >
b1010 ?
0A
#1700000000
0!
0%
0)
0/
05
08
#1710000000
1!
1%
1(
1)
1/
12
15
18
1;
b00010101 <
b01 =
b001 >
1A
#1720000000
0!
0%
0)
0/
05
08
#1730000000
1!
1%
0(
1)
1/
02
15
18
0;
b00010110 <
b10 =
b000 >
b1011 ?
0A
#1740000000
0!
0%
0)
0/
05
08
#1750000000
1!
1%
1(
1)
1/
12
15
18
1;
b00010111 <
b11 =
b001 >
1A
#1760000000
0!
0%
0)
0/
05
08
#1770000000
1!
1%
0(
1)
1/
02
15
18
0;
b00011000 <
b00 =
b000 >
b1100 ?
0A
#1780000000
0!
0%
0)
0/
05
08
#1790000000
1!
1%
1(
1)
1/
12
15
18
1;
b00011001 <
b01 =
b001 >
1A
#1800000000
0!
0%
0)
0/
05
08
#1810000000
1!
1%
0(
1)
1/
02
15
18
0;
b00011010 <
b10 =
b000 >
b1101 ?
0A
#1820000000
0!
0%
0)
0/
05
08
#1830000000
1!
1%
1(
1)
1/
12
15
18
1;
b00011011 <
b11 =
b001 >
1A
#1840000000
0!
0%
0)
0/
05
08
#1850000000
1!
1%
0(
1)
1/
02
15
18
0;
b00011100 <
b00 =
b000 >
b1110 ?
0A
#1860000000
0!
0%
0)
0/
05
08
#1870000000
1!
1%
1(
1)
1/
12
15
18
1;
b00011101 <
b01 =
b001 >
1A
#1880000000
0!
0%
0)
0/
05
08
#1890000000
1!
1%
0(
1)
1/
02
15
18
0;
b00011110 <
b10 =
b000 >
b1111 ?
0A
#1900000000
0!
0%
0)
0/
05
08
#1910000000
1!
1%
1(
1)
1/
12
15
18
1;
b00011111 <
b11 =
b001 >
1A
#1920000000
0!
0%
0)
0/
05
08
#1930000000
1!
1%
1&
0(
1)
1/
10
02
15
18
19
0;
b00000000 <
b00 =
b000 >
b10000 ?
1@
0A
#1940000000
0!
0%
0)
0/
05
08
#1950000000
1!
1%
1(
1)
1/
12
15
18
1;
b00000001 <
b01 =
b001 >
1A
#1960000000
0!
0%
0)
0/
05
08
#1970000000
1!
1%
0(
1)
1/
02
15
18
0;
b00000010 <
b10 =
b000 >
b10001 ?
0A
#1980000000
0!
0%
0)
0/
05
08
#1990000000
1!
1%
1(
1)
1/
12
15
18
1;
b00000011 <
b11 =
b001 >
1A
#2000000000
0!
0%
0)
0/
05
08
#2010000000
1!
1%
0(
1)
1/
02
15
18
0;
b00000100 <
b00 =
b000 >
b10010 ?
0A
#2020000000
0!
0%
0)
0/
05
08
#2030000000
1!
1%
1(
1)
1/
12
15
18
1;
b00000101 <
b01 =
b001 >
1A
#2040000000
0!
0%
0)
0/
05
08
#2050000000
1!
1%
0(
1)
1/
02
15
18
0;
b00000110 <
b10 =
b000 >
b10011 ?
0A
#2060000000
0!
0%
0)
0/
05
08
#2070000000
1!
1%
1(
1)
1/
12
15
18
1;
b00000111 <
b11 =
b001 >
1A
#2080000000
0!
0%
0)
0/
05
08
#2090000000
1!
1%
0(
1)
1/
02
15
18
0;
b00001000 <
b00 =
b000 >
b10100 ?
0A
#2100000000
0!
0%
0)
0/
05
08
#2110000000
1!
1%
1(
1)
1/
12
15
18
1;
b00001001 <
b01 =
b001 >
1A
#2120000000
0!
0%
0)
0/
05
08
#2130000000
1!
1%
0(
1)
1/
02
15
18
0;
b00001010 <
b10 =
b000 >
b10101 ?
0A
#2140000000
0!
0%
0)
0/
05
08
#2150000000
1!
1%
1(
1)
1/
12
15
18
1;
b00001011 <
b11 =
b001 >
1A
#2160000000
0!
0%
0)
0/
05
08
#2170000000
1!
1%
0(
1)
1/
02
15
18
0;
b00001100 <
b00 =
b000 >
b10110 ?
0A
#2180000000
0!
0%
0)
0/
05
08
#2190000000
1!
1%
1(
1)
1/
12
15
18
1;
b00001101 <
b01 =
b001 >
1A
#2200000000
0!
b001 #
b0011000011000000 $
0%
0)
b001 +
b0011000011000000 .
0/
05
08
#2210000000
1!
1%
0(
1)
1/
02
b00110000110000000000000000000000 4
15
b00110000110000000000000000000000 7
18
0;
b00001110 <
b10 =
b000 >
b10111 ?
0A
#2220000000
0!
0%
0)
0/
05
08
#2230000000
1!
1%
1(
1)
1/
12
15
18
1;
b00001111 <
b11 =
b001 >
1A
#2240000000
0!
0%
0)
0/
05
08
#2250000000
1!
1%
0(
1)
1/
02
15
18
0;
b00010000 <
b00 =
b000 >
b11000 ?
0A
#2260000000
0!
0%
0)
0/
05
08
#2270000000
1!
1%
1(
1)
1/
12
15
18
1;
b00010001 <
b01 =
b001 >
1A
#2280000000
0!
0%
0)
0/
05
08
#2290000000
1!
1%
0(
1)
1/
02
15
18
0;
b00010010 <
b10 =
b000 >
b11001 ?
0A
#2300000000
0!
0%
0)
0/
05
08
#2310000000
1!
1%
1(
1)
1/
12
15
18
1;
b00010011 <
b11 =
b001 >
1A
#2320000000
0!
0%
0)
0/
05
08
#2330000000
1!
1%
0(
1)
1/
02
15
18
0;
b00010100 <
b00 =
b000 >
b11010 ?
0A
#2340000000
0!
0%
0)
0/
05
08
#2350000000
1!
1%
1(
1)
1/
12
15
18
1;
b00010101 <
b01 =
b001 >
1A
#2360000000
0!
0%
0)
0/
05
08
#2370000000
1!
1%
0(
1)
1/
02
15
18
0;
b00010110 <
b10 =
b000 >
b11011 ?
0A
#2380000000
0!
0%
0)
0/
05
08
#2390000000
1!
1%
1(
1)
1/
12
15
18
1;
b00010111 <
b11 =
b001 >
1A
#2400000000
0!
0%
0)
0/
05
08
#2410000000
1!
1%
0(
1)
1/
02
15
18
0;
b00011000 <
b00 =
b000 >
b11100 ?
0A
#2420000000
0!
0%
0)
0/
05
08
#2430000000
1!
1%
1(
1)
1/
12
15
18
1;
b00011001 <
b01 =
b001 >
1A
#2440000000
0!
0%
0)
0/
05
08
#2450000000
1!
1%
0(
1)
1/
02
15
18
0;
b00011010 <
b10 =
b000 >
b11101 ?
0A
#2460000000
0!
0%
0)
0/
05
08
#2470000000
1!
1%
1(
1)
1/
12
15
18
1;
b00011011 <
b11 =
b001 >
1A
#2480000000
0!
0%
0)
0/
05
08
#2490000000
1!
1%
0(
1)
1/
02
15
18
0;
b00011100 <
b00 =
b000 >
b11110 ?
0A
#2500000000
0!
0%
0)
0/
05
08
#2510000000
1!
1%
1(
1)
1/
12
15
18
1;
b00011101 <
b01 =
b001 >
1A
#2520000000
0!
0%
0)
0/
05
08
#2530000000
1!
1%
0(
1)
1/
02
15
18
0;
b00011110 <
b10 =
b000 >
b11111 ?
0A
#2540000000
0!
0%
0)
0/
05
08
#2550000000
1!
1%
1(
1)
1/
12
15
18
1;
b00011111 <
b11 =
b001 >
1A
#2560000000
0!
0%
0)
0/
05
08
#2570000000
1!
1%
0&
0(
1)
1/
00
02
15
18
09
0;
b00000000 <
b00 =
b000 >
b0 ?
0@
0A
#2580000000
0!
0%
0)
0/
05
08
#2590000000
1!
1%
1(
1)
1/
12
15
18
1;
b00000001 <
b01 =
b001 >
1A
#2600000000
0!
0%
0)
0/
05
08
#2610000000
1!
1%
0(
1)
1/
02
15
18
0;
b00000010 <
b10 =
b000 >
b1 ?
0A
#2620000000
0!
0%
0)
0/
05
08
#2630000000
1!
1%
1(
1)
1/
12
15
18
1;
b00000011 <
b11 =
b001 >
1A
#2640000000
0!
0%
0)
0/
05
08
#2650000000
1!
1%
0(
1)
1/
02
15
18
0;
b00000100 <
b00 =
b000 >
b10 ?
0A
#2660000000
0!
0%
0)
0/
05
08
#2670000000
1!
1%
1(
1)
1/
12
15
18
1;
b00000101 <
b01 =
b001 >
1A
#2680000000
0!
0%
0)
0/
05
08
#2690000000
1!
1%
1'
0(
1)
1/
11
02
15
18
1:
0;
b00000110 <
b10 =
b000 >
b11 ?
0A
#2700000000
0!
0%
0)
0/
05
08
#2710000000
1!
1%
1(
1)
1/
12
15
18
1;
b00000111 <
b11 =
b001 >
1A
#2720000000
0!
0%
0)
0/
05
08
#2730000000
1!
1%
0(
1)
1/
02
15
18
0;
b00001000 <
b00 =
b000 >
b100 ?
0A
#2740000000
0!
0%
0)
0/
05
08
#2750000000
1!
1%
1(
1)
1/
12
15
18
1;
b00001001 <
b01 =
b001 >
1A
#2760000000
0!
0%
0)
0/
05
08
#2770000000
1!
1%
0'
0(
1)
1/
01
02
15
18
0:
0;
b00001010 <
b10 =
b000 >
b101 ?
0A
#2780000000
0!
0%
0)
0/
05
08
#2790000000
1!
1%
1(
1)
1/
12
15
18
1;
b00001011 <
b11 =
b001 >
1A
#2800000000
0!
0%
0)
0/
05
08
#2810000000
1!
1%
0(
1)
1/
02
15
18
0;
b00001100 <
b00 =
b000 >
b110 ?
0A
#2820000000
0!
0%
0)
0/
05
08
#2830000000
1!
1%
1(
1)
1/
12
15
18
1;
b00001101 <
b01 =
b001 >
1A
#2840000000
0!
0%
0)
0/
05
08
#2850000000
1!
1%
0(
1)
1/
02
15
18
0;
b00001110 <
b10 =
b000 >
b111 ?
0A
#2860000000
0!
0%
0)
0/
05
08
#2870000000
1!
1%
1(
1)
1/
12
15
18
1;
b00001111 <
b11 =
b001 >
1A
#2880000000
0!
0%
0)
0/
05
08
#2890000000
1!
1%
0(
1)
1/
02
15
18
0;
b00010000 <
b00 =
b000 >
b1000 ?
0A
#2900000000
0!
0%
0)
0/
05
08
#2910000000
1!
1%
1(
1)
1/
12
15
18
1;
b00010001 <
b01 =
b001 >
1A
#2920000000
0!
0%
0)
0/
05
08
#2930000000
1!
1%
1'
0(
1)
1/
11
02
15
18
1:
0;
b00010010 <
b10 =
b000 >
b1001 ?
0A
#2940000000
0!
0%
0)
0/
05
08
#2950000000
1!
1%
1(
1)
1/
12
15
18
1;
b00010011 <
b11 =
b001 >
1A
#2960000000
0!
0%
0)
0/
05
08
#2970000000
1!
1%
0(
1)
1/
02
15
18
0;
b00010100 <
b00 =
b000 >
b1010 ?
0A
#2980000000
0!
0%
0)
0/
05
08
#2990000000
1!
1%
1(
1)
1/
12
15
18
1;
b00010101 <
b01 =
b001 >
1A
#3000000000
0!
0%
0)
0/
05
08
#3010000000
1!
1%
0'
0(
1)
1/
01
02
15
18
0:
0;
b00010110 <
b10 =
b000 >
b1011 ?
0A
#3020000000
0!
0%
0)
0/
05
08
#3030000000
1!
1%
1(
1)
1/
12
15
18
1;
b00010111 <
b11 =
b001 >
1A
#3040000000
0!
0%
0)
0/
05
08
#3050000000
1!
1%
0(
1)
1/
02
15
18
0;
b00011000 <
b00 =
b000 >
b1100 ?
0A
#3060000000
0!
0%
0)
0/
05
08
#3070000000
1!
1%
1(
1)
1/
12
15
18
1;
b00011001 <
b01 =
b001 >
1A
#3080000000
0!
0%
0)
0/
05
08
#3090000000
1!
1%
0(
1)
1/
02
15
18
0;
b00011010 <
b10 =
b000 >
b1101 ?
0A
#3100000000
0!
0%
0)
0/
05
08
#3110000000
1!
1%
1(
1)
1/
12
15
18
1;
b00011011 <
b11 =
b001 >
1A
#3120000000
0!
0%
0)
0/
05
08
#3130000000
1!
1%
0(
1)
1/
02
15
18
0;
b00011100 <
b00 =
b000 >
b1110 ?
0A
#3140000000
0!
0%
0)
0/
05
08
#3150000000
1!
1%
1(
1)
1/
12
15
18
1;
b00011101 <
b01 =
b001 >
1A
#3160000000
0!
0%
0)
0/
05
08
#3170000000
1!
1%
0(
1)
1/
02
15
18
0;
b00011110 <
b10 =
b000 >
b1111 ?
0A
#3180000000
0!
0%
0)
0/
05
08
#3190000000
1!
1%
1(
1)
1/
12
15
18
1;
b00011111 <
b11 =
b001 >
1A
#3200000000
0!
0%
0)
0/
05
08
#3210000000
1!
1%
1&
0(
1)
1/
10
02
15
18
19
0;
b00000000 <
b00 =
b000 >
b10000 ?
1@
0A
#3220000000
0!
0%
0)
0/
05
08
#3230000000
1!
1%
1(
1)
1/
12
15
18
1;
b00000001 <
b01 =
b001 >
1A
#3240000000
0!
0%
0)
0/
05
08
#3250000000
1!
1%
0(
1)
1/
02
15
18
0;
b00000010 <
b10 =
b000 >
b10001 ?
0A
#3260000000
0!
0%
0)
0/
05
08
#3270000000
1!
1%
1(
1)
1/
12
15
18
1;
b00000011 <
b11 =
b001 >
1A
#3280000000
0!
0%
0)
0/
05
08
#3290000000
1!
1%
0(
1)
1/
02
15
18
0;
b00000100 <
b00 =
b000 >
b10010 ?
0A
#3300000000
0!
0%
0)
0/
05
08
#3310000000
1!
1%
1(
1)
1/
12
15
18
1;
b00000101 <
b01 =
b001 >
1A
#3320000000
0!
0%
0)
0/
05
08
#3330000000
1!
1%
0(
1)
1/
02
15
18
0;
b00000110 <
b10 =
b000 >
b10011 ?
0A
#3340000000
0!
0%
0)
0/
05
08
#3350000000
1!
1%
1(
1)
1/
12
15
18
1;
b00000111 <
b11 =
b001 >
1A
#3360000000
0!
0%
0)
0/
05
08
#3370000000
1!
1%
0(
1)
1/
02
15
18
0;
b00001000 <
b00 =
b000 >
b10100 ?
0A
#3380000000
0!
0%
0)
0/
05
08
#3390000000
1!
1%
1(
1)
1/
12
15
18
1;
b00001001 <
b01 =
b001 >
1A
#3400000000
0!
0%
0)
0/
05
08
#3410000000
1!
1%
0(
1)
1/
02
15
18
0;
b00001010 <
b10 =
b000 >
b10101 ?
0A
#3420000000
0!
0%
0)
0/
05
08
#3430000000
1!
1%
1(
1)
1/
12
15
18
1;
b00001011 <
b11 =
b001 >
1A
#3440000000
0!
0%
0)
0/
05
08
#3450000000
1!
1%
0(
1)
1/
02
15
18
0;
b00001100 <
b00 =
b000 >
b10110 ?
0A
#3460000000
0!
0%
0)
0/
05
08
#3470000000
1!
1%
1(
1)
1/
12
15
18
1;
b00001101 <
b01 =
b001 >
1A
#3480000000
0!
0%
0)
0/
05
08
#3490000000
1!
1%
0(
1)
1/
02
15
18
0;
b00001110 <
b10 =
b000 >
b10111 ?
0A
#3500000000
0!
0%
0)
0/
05
08
#3510000000
1!
1%
1(
1)
1/
12
15
18
1;
b00001111 <
b11 =
b001 >
1A
#3520000000
0!
0%
0)
0/
05
08
#3530000000
1!
1%
0(
1)
1/
02
15
18
0;
b00010000 <
b00 =
b000 >
b11000 ?
0A
#3540000000
0!
0%
0)
0/
05
08
#3550000000
1!
1%
1(
1)
1/
12
15
18
1;
b00010001 <
b01 =
b001 >
1A
#3560000000
0!
0%
0)
0/
05
08
#3570000000
1!
1%
0(
1)
1/
02
15
18
0;
b00010010 <
b10 =
b000 >
b11001 ?
0A
#3580000000
0!
0%
0)
0/
05
08
#3590000000
1!
1%
1(
1)
1/
12
15
18
1;
b00010011 <
b11 =
b001 >
1A
#3600000000
0!
0%
0)
0/
05
08
#3610000000
1!
1%
0(
1)
1/
02
15
18
0;
b00010100 <
b00 =
b000 >
b11010 ?
0A
#3620000000
0!
0%
0)
0/
05
08
#3630000000
1!
1%
1(
1)
1/
12
15
18
1;
b00010101 <
b01 =
b001 >
1A
#3640000000
0!
0%
0)
0/
05
08
#3650000000
1!
1%
0(
1)
1/
02
15
18
0;
b00010110 <
b10 =
b000 >
b11011 ?
0A
#3660000000
0!
0%
0)
0/
05
08
#3670000000
1!
1%
1(
1)
1/
12
15
18
1;
b00010111 <
b11 =
b001 >
1A
#3680000000
0!
0%
0)
0/
05
08
#3690000000
1!
1%
0(
1)
1/
02
15
18
0;
b00011000 <
b00 =
b000 >
b11100 ?
0A
#3700000000
0!
0%
0)
0/
05
08
#3710000000
1!
1%
1(
1)
1/
12
15
18
1;
b00011001 <
b01 =
b001 >
1A
#3720000000
0!
0%
0)
0/
05
08
#3730000000
1!
1%
0(
1)
1/
02
15
18
0;
b00011010 <
b10 =
b000 >
b11101 ?
0A
#3740000000
0!
0%
0)
0/
05
08
#3750000000
1!
1%
1(
1)
1/
12
15
18
1;
b00011011 <
b11 =
b001 >
1A
