src/ultrasound/output.vcd
$date
  Thu Mar  8 16:14:30 2018
$end
$version
  GHDL v0
$end
$timescale
  1 fs
$end
$var reg 1 ! clk $end
$var reg 1 " rst $end
$var reg 1 # echo $end
$var reg 1 $ trig $end
$var reg 16 % dist[15:0] $end
$scope module uut $end
$var reg 1 & clk $end
$var reg 1 ' rst $end
$var reg 1 ( echo $end
$var reg 1 ) trig $end
$var reg 16 * dist[15:0] $end
$var reg 1 + en_count $end
$var reg 9 , trig_count[8:0] $end
$var reg 16 - echo_count[15:0] $end
$scope module cnt1 $end
$var reg 1 . clk $end
$var reg 1 / rst $end
$var reg 1 0 load $end
$var reg 1 1 enable $end
$var reg 9 2 load_value[8:0] $end
$var reg 9 3 max_value[8:0] $end
$var reg 9 4 counter_value[8:0] $end
$var reg 9 5 count[8:0] $end
$upscope $end
$upscope $end
$enddefinitions $end
#0
0!
1"
0#
U$
bUUUUUUUUUUUUUUUU %
0&
1'
0(
U)
bUUUUUUUUUUUUUUUU *
U+
b000000000 ,
bUUUUUUUUUUUUUUUU -
0.
1/
00
U1
b000000000 2
b111110100 3
b000000000 4
b000000000 5
#10000000
1!
0$
b0000000000000000 %
1&
0)
b0000000000000000 *
0+
b0000000000000000 -
1.
01
#20000000
0!
0&
0.
#30000000
1!
1&
1.
#40000000
0!
0&
0.
#50000000
1!
1&
1.
#60000000
0!
0&
0.
#70000000
1!
1&
1.
#80000000
0!
0&
0.
#90000000
1!
1&
1.
#100000000
0!
0&
0.
#110000000
1!
1&
1.
#120000000
0!
0&
0.
#130000000
1!
1&
1.
#140000000
0!
0&
0.
#150000000
1!
1&
1.
#160000000
0!
0&
0.
#170000000
1!
1&
1.
#180000000
0!
0&
0.
#190000000
1!
1&
1.
#200000000
0!
0"
0&
0'
0.
0/
#210000000
1!
1$
1&
1)
1+
1.
11
#220000000
0!
0&
0.
#230000000
1!
1&
1.
b000000001 5
#240000000
0!
0&
0.
#250000000
1!
1&
b000000001 ,
1.
b000000001 4
b000000010 5
#260000000
0!
0&
0.
#270000000
1!
1&
b000000010 ,
1.
b000000010 4
b000000011 5
#280000000
0!
0&
0.
#290000000
1!
1&
b000000011 ,
1.
b000000011 4
b000000100 5
#300000000
0!
0&
0.
#310000000
1!
1&
b000000100 ,
1.
b000000100 4
b000000101 5
#320000000
0!
0&
0.
#330000000
1!
1&
b000000101 ,
1.
b000000101 4
b000000110 5
#340000000
0!
0&
0.
#350000000
1!
1&
b000000110 ,
1.
b000000110 4
b000000111 5
#360000000
0!
0&
0.
#370000000
1!
1&
b000000111 ,
1.
b000000111 4
b000001000 5
#380000000
0!
0&
0.
#390000000
1!
1&
b000001000 ,
1.
b000001000 4
b000001001 5
#400000000
0!
0&
0.
#410000000
1!
1&
b000001001 ,
1.
b000001001 4
b000001010 5
#420000000
0!
0&
0.
#430000000
1!
1&
b000001010 ,
1.
b000001010 4
b000001011 5
#440000000
0!
0&
0.
#450000000
1!
1&
b000001011 ,
1.
b000001011 4
b000001100 5
#460000000
0!
0&
0.
#470000000
1!
1&
b000001100 ,
1.
b000001100 4
b000001101 5
#480000000
0!
0&
0.
#490000000
1!
1&
b000001101 ,
1.
b000001101 4
b000001110 5
#500000000
0!
0&
0.
#510000000
1!
1&
b000001110 ,
1.
b000001110 4
b000001111 5
#520000000
0!
0&
0.
#530000000
1!
1&
b000001111 ,
1.
b000001111 4
b000010000 5
#540000000
0!
0&
0.
#550000000
1!
1&
b000010000 ,
1.
b000010000 4
b000010001 5
#560000000
0!
0&
0.
#570000000
1!
1&
b000010001 ,
1.
b000010001 4
b000010010 5
#580000000
0!
0&
0.
#590000000
1!
1&
b000010010 ,
1.
b000010010 4
b000010011 5
#600000000
0!
0&
0.
#610000000
1!
1&
b000010011 ,
1.
b000010011 4
b000010100 5
#620000000
0!
0&
0.
#630000000
1!
1&
b000010100 ,
1.
b000010100 4
b000010101 5
#640000000
0!
0&
0.
#650000000
1!
1&
b000010101 ,
1.
b000010101 4
b000010110 5
#660000000
0!
0&
0.
#670000000
1!
1&
b000010110 ,
1.
b000010110 4
b000010111 5
#680000000
0!
0&
0.
#690000000
1!
1&
b000010111 ,
1.
b000010111 4
b000011000 5
#700000000
0!
0&
0.
#710000000
1!
1&
b000011000 ,
1.
b000011000 4
b000011001 5
#720000000
0!
0&
0.
#730000000
1!
1&
b000011001 ,
1.
b000011001 4
b000011010 5
#740000000
0!
0&
0.
#750000000
1!
1&
b000011010 ,
1.
b000011010 4
b000011011 5
#760000000
0!
0&
0.
#770000000
1!
1&
b000011011 ,
1.
b000011011 4
b000011100 5
#780000000
0!
0&
0.
#790000000
1!
1&
b000011100 ,
1.
b000011100 4
b000011101 5
#800000000
0!
0&
0.
#810000000
1!
1&
b000011101 ,
1.
b000011101 4
b000011110 5
#820000000
0!
0&
0.
#830000000
1!
1&
b000011110 ,
1.
b000011110 4
b000011111 5
#840000000
0!
0&
0.
#850000000
1!
1&
b000011111 ,
1.
b000011111 4
b000100000 5
#860000000
0!
0&
0.
#870000000
1!
1&
b000100000 ,
1.
b000100000 4
b000100001 5
#880000000
0!
0&
0.
#890000000
1!
1&
b000100001 ,
1.
b000100001 4
b000100010 5
#900000000
0!
0&
0.
#910000000
1!
1&
b000100010 ,
1.
b000100010 4
b000100011 5
#920000000
0!
0&
0.
#930000000
1!
1&
b000100011 ,
1.
b000100011 4
b000100100 5
#940000000
0!
0&
0.
#950000000
1!
1&
b000100100 ,
1.
b000100100 4
b000100101 5
#960000000
0!
0&
0.
#970000000
1!
1&
b000100101 ,
1.
b000100101 4
b000100110 5
#980000000
0!
0&
0.
#990000000
1!
1&
b000100110 ,
1.
b000100110 4
b000100111 5
#1000000000
0!
0&
0.
#1010000000
1!
1&
b000100111 ,
1.
b000100111 4
b000101000 5
#1020000000
0!
0&
0.
#1030000000
1!
1&
b000101000 ,
1.
b000101000 4
b000101001 5
#1040000000
0!
0&
0.
#1050000000
1!
1&
b000101001 ,
1.
b000101001 4
b000101010 5
#1060000000
0!
0&
0.
#1070000000
1!
1&
b000101010 ,
1.
b000101010 4
b000101011 5
#1080000000
0!
0&
0.
#1090000000
1!
1&
b000101011 ,
1.
b000101011 4
b000101100 5
#1100000000
0!
0&
0.
#1110000000
1!
1&
b000101100 ,
1.
b000101100 4
b000101101 5
#1120000000
0!
0&
0.
#1130000000
1!
1&
b000101101 ,
1.
b000101101 4
b000101110 5
#1140000000
0!
0&
0.
#1150000000
1!
1&
b000101110 ,
1.
b000101110 4
b000101111 5
#1160000000
0!
0&
0.
#1170000000
1!
1&
b000101111 ,
1.
b000101111 4
b000110000 5
#1180000000
0!
0&
0.
#1190000000
1!
1&
b000110000 ,
1.
b000110000 4
b000110001 5
#1200000000
0!
0&
0.
#1210000000
1!
1&
b000110001 ,
1.
b000110001 4
b000110010 5
#1220000000
0!
0&
0.
#1230000000
1!
1&
b000110010 ,
1.
b000110010 4
b000110011 5
#1240000000
0!
0&
0.
#1250000000
1!
1&
b000110011 ,
1.
b000110011 4
b000110100 5
#1260000000
0!
0&
0.
#1270000000
1!
1&
b000110100 ,
1.
b000110100 4
b000110101 5
#1280000000
0!
0&
0.
#1290000000
1!
1&
b000110101 ,
1.
b000110101 4
b000110110 5
#1300000000
0!
0&
0.
#1310000000
1!
1&
b000110110 ,
1.
b000110110 4
b000110111 5
#1320000000
0!
0&
0.
#1330000000
1!
1&
b000110111 ,
1.
b000110111 4
b000111000 5
#1340000000
0!
0&
0.
#1350000000
1!
1&
b000111000 ,
1.
b000111000 4
b000111001 5
#1360000000
0!
0&
0.
#1370000000
1!
1&
b000111001 ,
1.
b000111001 4
b000111010 5
#1380000000
0!
0&
0.
#1390000000
1!
1&
b000111010 ,
1.
b000111010 4
b000111011 5
#1400000000
0!
0&
0.
#1410000000
1!
1&
b000111011 ,
1.
b000111011 4
b000111100 5
#1420000000
0!
0&
0.
#1430000000
1!
1&
b000111100 ,
1.
b000111100 4
b000111101 5
#1440000000
0!
0&
0.
#1450000000
1!
1&
b000111101 ,
1.
b000111101 4
b000111110 5
#1460000000
0!
0&
0.
#1470000000
1!
1&
b000111110 ,
1.
b000111110 4
b000111111 5
#1480000000
0!
0&
0.
#1490000000
1!
1&
b000111111 ,
1.
b000111111 4
b001000000 5
#1500000000
0!
0&
0.
#1510000000
1!
1&
b001000000 ,
1.
b001000000 4
b001000001 5
#1520000000
0!
0&
0.
#1530000000
1!
1&
b001000001 ,
1.
b001000001 4
b001000010 5
#1540000000
0!
0&
0.
#1550000000
1!
1&
b001000010 ,
1.
b001000010 4
b001000011 5
#1560000000
0!
0&
0.
#1570000000
1!
1&
b001000011 ,
1.
b001000011 4
b001000100 5
#1580000000
0!
0&
0.
#1590000000
1!
1&
b001000100 ,
1.
b001000100 4
b001000101 5
#1600000000
0!
0&
0.
#1610000000
1!
1&
b001000101 ,
1.
b001000101 4
b001000110 5
#1620000000
0!
0&
0.
#1630000000
1!
1&
b001000110 ,
1.
b001000110 4
b001000111 5
#1640000000
0!
0&
0.
#1650000000
1!
1&
b001000111 ,
1.
b001000111 4
b001001000 5
#1660000000
0!
0&
0.
#1670000000
1!
1&
b001001000 ,
1.
b001001000 4
b001001001 5
#1680000000
0!
0&
0.
#1690000000
1!
1&
b001001001 ,
1.
b001001001 4
b001001010 5
#1700000000
0!
0&
0.
#1710000000
1!
1&
b001001010 ,
1.
b001001010 4
b001001011 5
#1720000000
0!
0&
0.
#1730000000
1!
1&
b001001011 ,
1.
b001001011 4
b001001100 5
#1740000000
0!
0&
0.
#1750000000
1!
1&
b001001100 ,
1.
b001001100 4
b001001101 5
#1760000000
0!
0&
0.
#1770000000
1!
1&
b001001101 ,
1.
b001001101 4
b001001110 5
#1780000000
0!
0&
0.
#1790000000
1!
1&
b001001110 ,
1.
b001001110 4
b001001111 5
#1800000000
0!
0&
0.
#1810000000
1!
1&
b001001111 ,
1.
b001001111 4
b001010000 5
#1820000000
0!
0&
0.
#1830000000
1!
1&
b001010000 ,
1.
b001010000 4
b001010001 5
#1840000000
0!
0&
0.
#1850000000
1!
1&
b001010001 ,
1.
b001010001 4
b001010010 5
#1860000000
0!
0&
0.
#1870000000
1!
1&
b001010010 ,
1.
b001010010 4
b001010011 5
#1880000000
0!
0&
0.
#1890000000
1!
1&
b001010011 ,
1.
b001010011 4
b001010100 5
#1900000000
0!
0&
0.
#1910000000
1!
1&
b001010100 ,
1.
b001010100 4
b001010101 5
#1920000000
0!
0&
0.
#1930000000
1!
1&
b001010101 ,
1.
b001010101 4
b001010110 5
#1940000000
0!
0&
0.
#1950000000
1!
1&
b001010110 ,
1.
b001010110 4
b001010111 5
#1960000000
0!
0&
0.
#1970000000
1!
1&
b001010111 ,
1.
b001010111 4
b001011000 5
#1980000000
0!
0&
0.
#1990000000
1!
1&
b001011000 ,
1.
b001011000 4
b001011001 5
#2000000000
0!
0&
0.
#2010000000
1!
1&
b001011001 ,
1.
b001011001 4
b001011010 5
#2020000000
0!
0&
0.
#2030000000
1!
1&
b001011010 ,
1.
b001011010 4
b001011011 5
#2040000000
0!
0&
0.
#2050000000
1!
1&
b001011011 ,
1.
b001011011 4
b001011100 5
#2060000000
0!
0&
0.
#2070000000
1!
1&
b001011100 ,
1.
b001011100 4
b001011101 5
#2080000000
0!
0&
0.
#2090000000
1!
1&
b001011101 ,
1.
b001011101 4
b001011110 5
#2100000000
0!
0&
0.
#2110000000
1!
1&
b001011110 ,
1.
b001011110 4
b001011111 5
#2120000000
0!
0&
0.
#2130000000
1!
1&
b001011111 ,
1.
b001011111 4
b001100000 5
#2140000000
0!
0&
0.
#2150000000
1!
1&
b001100000 ,
1.
b001100000 4
b001100001 5
#2160000000
0!
0&
0.
#2170000000
1!
1&
b001100001 ,
1.
b001100001 4
b001100010 5
#2180000000
0!
0&
0.
#2190000000
1!
1&
b001100010 ,
1.
b001100010 4
b001100011 5
#2200000000
0!
0&
0.
#2210000000
1!
1&
b001100011 ,
1.
b001100011 4
b001100100 5
#2220000000
0!
0&
0.
#2230000000
1!
1&
b001100100 ,
1.
b001100100 4
b001100101 5
#2240000000
0!
0&
0.
#2250000000
1!
1&
b001100101 ,
1.
b001100101 4
b001100110 5
#2260000000
0!
0&
0.
#2270000000
1!
1&
b001100110 ,
1.
b001100110 4
b001100111 5
#2280000000
0!
0&
0.
#2290000000
1!
1&
b001100111 ,
1.
b001100111 4
b001101000 5
#2300000000
0!
0&
0.
#2310000000
1!
1&
b001101000 ,
1.
b001101000 4
b001101001 5
#2320000000
0!
0&
0.
#2330000000
1!
1&
b001101001 ,
1.
b001101001 4
b001101010 5
#2340000000
0!
0&
0.
#2350000000
1!
1&
b001101010 ,
1.
b001101010 4
b001101011 5
#2360000000
0!
0&
0.
#2370000000
1!
1&
b001101011 ,
1.
b001101011 4
b001101100 5
#2380000000
0!
0&
0.
#2390000000
1!
1&
b001101100 ,
1.
b001101100 4
b001101101 5
#2400000000
0!
0&
0.
#2410000000
1!
1&
b001101101 ,
1.
b001101101 4
b001101110 5
#2420000000
0!
0&
0.
#2430000000
1!
1&
b001101110 ,
1.
b001101110 4
b001101111 5
#2440000000
0!
0&
0.
#2450000000
1!
1&
b001101111 ,
1.
b001101111 4
b001110000 5
#2460000000
0!
0&
0.
#2470000000
1!
1&
b001110000 ,
1.
b001110000 4
b001110001 5
#2480000000
0!
0&
0.
#2490000000
1!
1&
b001110001 ,
1.
b001110001 4
b001110010 5
#2500000000
0!
0&
0.
#2510000000
1!
1&
b001110010 ,
1.
b001110010 4
b001110011 5
#2520000000
0!
0&
0.
#2530000000
1!
1&
b001110011 ,
1.
b001110011 4
b001110100 5
#2540000000
0!
0&
0.
#2550000000
1!
1&
b001110100 ,
1.
b001110100 4
b001110101 5
#2560000000
0!
0&
0.
#2570000000
1!
1&
b001110101 ,
1.
b001110101 4
b001110110 5
#2580000000
0!
0&
0.
#2590000000
1!
1&
b001110110 ,
1.
b001110110 4
b001110111 5
#2600000000
0!
0&
0.
#2610000000
1!
1&
b001110111 ,
1.
b001110111 4
b001111000 5
#2620000000
0!
0&
0.
#2630000000
1!
1&
b001111000 ,
1.
b001111000 4
b001111001 5
#2640000000
0!
0&
0.
#2650000000
1!
1&
b001111001 ,
1.
b001111001 4
b001111010 5
#2660000000
0!
0&
0.
#2670000000
1!
1&
b001111010 ,
1.
b001111010 4
b001111011 5
#2680000000
0!
0&
0.
#2690000000
1!
1&
b001111011 ,
1.
b001111011 4
b001111100 5
#2700000000
0!
0&
0.
#2710000000
1!
1&
b001111100 ,
1.
b001111100 4
b001111101 5
#2720000000
0!
0&
0.
#2730000000
1!
1&
b001111101 ,
1.
b001111101 4
b001111110 5
#2740000000
0!
0&
0.
#2750000000
1!
1&
b001111110 ,
1.
b001111110 4
b001111111 5
#2760000000
0!
0&
0.
#2770000000
1!
1&
b001111111 ,
1.
b001111111 4
b010000000 5
#2780000000
0!
0&
0.
#2790000000
1!
1&
b010000000 ,
1.
b010000000 4
b010000001 5
#2800000000
0!
0&
0.
#2810000000
1!
1&
b010000001 ,
1.
b010000001 4
b010000010 5
#2820000000
0!
0&
0.
#2830000000
1!
1&
b010000010 ,
1.
b010000010 4
b010000011 5
#2840000000
0!
0&
0.
#2850000000
1!
1&
b010000011 ,
1.
b010000011 4
b010000100 5
#2860000000
0!
0&
0.
#2870000000
1!
1&
b010000100 ,
1.
b010000100 4
b010000101 5
#2880000000
0!
0&
0.
#2890000000
1!
1&
b010000101 ,
1.
b010000101 4
b010000110 5
#2900000000
0!
0&
0.
#2910000000
1!
1&
b010000110 ,
1.
b010000110 4
b010000111 5
#2920000000
0!
0&
0.
#2930000000
1!
1&
b010000111 ,
1.
b010000111 4
b010001000 5
#2940000000
0!
0&
0.
#2950000000
1!
1&
b010001000 ,
1.
b010001000 4
b010001001 5
#2960000000
0!
0&
0.
#2970000000
1!
1&
b010001001 ,
1.
b010001001 4
b010001010 5
#2980000000
0!
0&
0.
#2990000000
1!
1&
b010001010 ,
1.
b010001010 4
b010001011 5
#3000000000
0!
0&
0.
#3010000000
1!
1&
b010001011 ,
1.
b010001011 4
b010001100 5
#3020000000
0!
0&
0.
#3030000000
1!
1&
b010001100 ,
1.
b010001100 4
b010001101 5
#3040000000
0!
0&
0.
#3050000000
1!
1&
b010001101 ,
1.
b010001101 4
b010001110 5
#3060000000
0!
0&
0.
#3070000000
1!
1&
b010001110 ,
1.
b010001110 4
b010001111 5
#3080000000
0!
0&
0.
#3090000000
1!
1&
b010001111 ,
1.
b010001111 4
b010010000 5
#3100000000
0!
0&
0.
#3110000000
1!
1&
b010010000 ,
1.
b010010000 4
b010010001 5
#3120000000
0!
0&
0.
#3130000000
1!
1&
b010010001 ,
1.
b010010001 4
b010010010 5
#3140000000
0!
0&
0.
#3150000000
1!
1&
b010010010 ,
1.
b010010010 4
b010010011 5
#3160000000
0!
0&
0.
#3170000000
1!
1&
b010010011 ,
1.
b010010011 4
b010010100 5
#3180000000
0!
0&
0.
#3190000000
1!
1&
b010010100 ,
1.
b010010100 4
b010010101 5
#3200000000
0!
0&
0.
#3210000000
1!
1&
b010010101 ,
1.
b010010101 4
b010010110 5
#3220000000
0!
0&
0.
#3230000000
1!
1&
b010010110 ,
1.
b010010110 4
b010010111 5
#3240000000
0!
0&
0.
#3250000000
1!
1&
b010010111 ,
1.
b010010111 4
b010011000 5
#3260000000
0!
0&
0.
#3270000000
1!
1&
b010011000 ,
1.
b010011000 4
b010011001 5
#3280000000
0!
0&
0.
#3290000000
1!
1&
b010011001 ,
1.
b010011001 4
b010011010 5
#3300000000
0!
0&
0.
#3310000000
1!
1&
b010011010 ,
1.
b010011010 4
b010011011 5
#3320000000
0!
0&
0.
#3330000000
1!
1&
b010011011 ,
1.
b010011011 4
b010011100 5
#3340000000
0!
0&
0.
#3350000000
1!
1&
b010011100 ,
1.
b010011100 4
b010011101 5
#3360000000
0!
0&
0.
#3370000000
1!
1&
b010011101 ,
1.
b010011101 4
b010011110 5
#3380000000
0!
0&
0.
#3390000000
1!
1&
b010011110 ,
1.
b010011110 4
b010011111 5
#3400000000
0!
0&
0.
#3410000000
1!
1&
b010011111 ,
1.
b010011111 4
b010100000 5
#3420000000
0!
0&
0.
#3430000000
1!
1&
b010100000 ,
1.
b010100000 4
b010100001 5
#3440000000
0!
0&
0.
#3450000000
1!
1&
b010100001 ,
1.
b010100001 4
b010100010 5
#3460000000
0!
0&
0.
#3470000000
1!
1&
b010100010 ,
1.
b010100010 4
b010100011 5
#3480000000
0!
0&
0.
#3490000000
1!
1&
b010100011 ,
1.
b010100011 4
b010100100 5
#3500000000
0!
0&
0.
#3510000000
1!
1&
b010100100 ,
1.
b010100100 4
b010100101 5
#3520000000
0!
0&
0.
#3530000000
1!
1&
b010100101 ,
1.
b010100101 4
b010100110 5
#3540000000
0!
0&
0.
#3550000000
1!
1&
b010100110 ,
1.
b010100110 4
b010100111 5
#3560000000
0!
0&
0.
#3570000000
1!
1&
b010100111 ,
1.
b010100111 4
b010101000 5
#3580000000
0!
0&
0.
#3590000000
1!
1&
b010101000 ,
1.
b010101000 4
b010101001 5
#3600000000
0!
0&
0.
#3610000000
1!
1&
b010101001 ,
1.
b010101001 4
b010101010 5
#3620000000
0!
0&
0.
#3630000000
1!
1&
b010101010 ,
1.
b010101010 4
b010101011 5
#3640000000
0!
0&
0.
#3650000000
1!
1&
b010101011 ,
1.
b010101011 4
b010101100 5
#3660000000
0!
0&
0.
#3670000000
1!
1&
b010101100 ,
1.
b010101100 4
b010101101 5
#3680000000
0!
0&
0.
#3690000000
1!
1&
b010101101 ,
1.
b010101101 4
b010101110 5
#3700000000
0!
0&
0.
#3710000000
1!
1&
b010101110 ,
1.
b010101110 4
b010101111 5
#3720000000
0!
0&
0.
#3730000000
1!
1&
b010101111 ,
1.
b010101111 4
b010110000 5
#3740000000
0!
0&
0.
#3750000000
1!
1&
b010110000 ,
1.
b010110000 4
b010110001 5
#3760000000
0!
0&
0.
#3770000000
1!
1&
b010110001 ,
1.
b010110001 4
b010110010 5
#3780000000
0!
0&
0.
#3790000000
1!
1&
b010110010 ,
1.
b010110010 4
b010110011 5
#3800000000
0!
0&
0.
#3810000000
1!
1&
b010110011 ,
1.
b010110011 4
b010110100 5
#3820000000
0!
0&
0.
#3830000000
1!
1&
b010110100 ,
1.
b010110100 4
b010110101 5
#3840000000
0!
0&
0.
#3850000000
1!
1&
b010110101 ,
1.
b010110101 4
b010110110 5
#3860000000
0!
0&
0.
#3870000000
1!
1&
b010110110 ,
1.
b010110110 4
b010110111 5
#3880000000
0!
0&
0.
#3890000000
1!
1&
b010110111 ,
1.
b010110111 4
b010111000 5
#3900000000
0!
0&
0.
#3910000000
1!
1&
b010111000 ,
1.
b010111000 4
b010111001 5
#3920000000
0!
0&
0.
#3930000000
1!
1&
b010111001 ,
1.
b010111001 4
b010111010 5
#3940000000
0!
0&
0.
#3950000000
1!
1&
b010111010 ,
1.
b010111010 4
b010111011 5
#3960000000
0!
0&
0.
#3970000000
1!
1&
b010111011 ,
1.
b010111011 4
b010111100 5
#3980000000
0!
0&
0.
#3990000000
1!
1&
b010111100 ,
1.
b010111100 4
b010111101 5
#4000000000
0!
0&
0.
#4010000000
1!
1&
b010111101 ,
1.
b010111101 4
b010111110 5
#4020000000
0!
0&
0.
#4030000000
1!
1&
b010111110 ,
1.
b010111110 4
b010111111 5
#4040000000
0!
0&
0.
#4050000000
1!
1&
b010111111 ,
1.
b010111111 4
b011000000 5
#4060000000
0!
0&
0.
#4070000000
1!
1&
b011000000 ,
1.
b011000000 4
b011000001 5
#4080000000
0!
0&
0.
#4090000000
1!
1&
b011000001 ,
1.
b011000001 4
b011000010 5
#4100000000
0!
0&
0.
#4110000000
1!
1&
b011000010 ,
1.
b011000010 4
b011000011 5
#4120000000
0!
0&
0.
#4130000000
1!
1&
b011000011 ,
1.
b011000011 4
b011000100 5
#4140000000
0!
0&
0.
#4150000000
1!
1&
b011000100 ,
1.
b011000100 4
b011000101 5
#4160000000
0!
0&
0.
#4170000000
1!
1&
b011000101 ,
1.
b011000101 4
b011000110 5
#4180000000
0!
0&
0.
#4190000000
1!
1&
b011000110 ,
1.
b011000110 4
b011000111 5
#4200000000
0!
0&
0.
#4210000000
1!
1&
b011000111 ,
1.
b011000111 4
b011001000 5
#4220000000
0!
0&
0.
#4230000000
1!
1&
b011001000 ,
1.
b011001000 4
b011001001 5
#4240000000
0!
0&
0.
#4250000000
1!
1&
b011001001 ,
1.
b011001001 4
b011001010 5
#4260000000
0!
0&
0.
#4270000000
1!
1&
b011001010 ,
1.
b011001010 4
b011001011 5
#4280000000
0!
0&
0.
#4290000000
1!
1&
b011001011 ,
1.
b011001011 4
b011001100 5
#4300000000
0!
0&
0.
#4310000000
1!
1&
b011001100 ,
1.
b011001100 4
b011001101 5
#4320000000
0!
0&
0.
#4330000000
1!
1&
b011001101 ,
1.
b011001101 4
b011001110 5
#4340000000
0!
0&
0.
#4350000000
1!
1&
b011001110 ,
1.
b011001110 4
b011001111 5
#4360000000
0!
0&
0.
#4370000000
1!
1&
b011001111 ,
1.
b011001111 4
b011010000 5
#4380000000
0!
0&
0.
#4390000000
1!
1&
b011010000 ,
1.
b011010000 4
b011010001 5
#4400000000
0!
0&
0.
#4410000000
1!
1&
b011010001 ,
1.
b011010001 4
b011010010 5
#4420000000
0!
0&
0.
#4430000000
1!
1&
b011010010 ,
1.
b011010010 4
b011010011 5
#4440000000
0!
0&
0.
#4450000000
1!
1&
b011010011 ,
1.
b011010011 4
b011010100 5
#4460000000
0!
0&
0.
#4470000000
1!
1&
b011010100 ,
1.
b011010100 4
b011010101 5
#4480000000
0!
0&
0.
#4490000000
1!
1&
b011010101 ,
1.
b011010101 4
b011010110 5
#4500000000
0!
0&
0.
#4510000000
1!
1&
b011010110 ,
1.
b011010110 4
b011010111 5
#4520000000
0!
0&
0.
#4530000000
1!
1&
b011010111 ,
1.
b011010111 4
b011011000 5
#4540000000
0!
0&
0.
#4550000000
1!
1&
b011011000 ,
1.
b011011000 4
b011011001 5
#4560000000
0!
0&
0.
#4570000000
1!
1&
b011011001 ,
1.
b011011001 4
b011011010 5
#4580000000
0!
0&
0.
#4590000000
1!
1&
b011011010 ,
1.
b011011010 4
b011011011 5
#4600000000
0!
0&
0.
#4610000000
1!
1&
b011011011 ,
1.
b011011011 4
b011011100 5
#4620000000
0!
0&
0.
#4630000000
1!
1&
b011011100 ,
1.
b011011100 4
b011011101 5
#4640000000
0!
0&
0.
#4650000000
1!
1&
b011011101 ,
1.
b011011101 4
b011011110 5
#4660000000
0!
0&
0.
#4670000000
1!
1&
b011011110 ,
1.
b011011110 4
b011011111 5
#4680000000
0!
0&
0.
#4690000000
1!
1&
b011011111 ,
1.
b011011111 4
b011100000 5
#4700000000
0!
0&
0.
#4710000000
1!
1&
b011100000 ,
1.
b011100000 4
b011100001 5
#4720000000
0!
0&
0.
#4730000000
1!
1&
b011100001 ,
1.
b011100001 4
b011100010 5
#4740000000
0!
0&
0.
#4750000000
1!
1&
b011100010 ,
1.
b011100010 4
b011100011 5
#4760000000
0!
0&
0.
#4770000000
1!
1&
b011100011 ,
1.
b011100011 4
b011100100 5
#4780000000
0!
0&
0.
#4790000000
1!
1&
b011100100 ,
1.
b011100100 4
b011100101 5
#4800000000
0!
0&
0.
#4810000000
1!
1&
b011100101 ,
1.
b011100101 4
b011100110 5
#4820000000
0!
0&
0.
#4830000000
1!
1&
b011100110 ,
1.
b011100110 4
b011100111 5
#4840000000
0!
0&
0.
#4850000000
1!
1&
b011100111 ,
1.
b011100111 4
b011101000 5
#4860000000
0!
0&
0.
#4870000000
1!
1&
b011101000 ,
1.
b011101000 4
b011101001 5
#4880000000
0!
0&
0.
#4890000000
1!
1&
b011101001 ,
1.
b011101001 4
b011101010 5
#4900000000
0!
0&
0.
#4910000000
1!
1&
b011101010 ,
1.
b011101010 4
b011101011 5
#4920000000
0!
0&
0.
#4930000000
1!
1&
b011101011 ,
1.
b011101011 4
b011101100 5
#4940000000
0!
0&
0.
#4950000000
1!
1&
b011101100 ,
1.
b011101100 4
b011101101 5
#4960000000
0!
0&
0.
#4970000000
1!
1&
b011101101 ,
1.
b011101101 4
b011101110 5
#4980000000
0!
0&
0.
#4990000000
1!
1&
b011101110 ,
1.
b011101110 4
b011101111 5
#5000000000
0!
0&
0.
#5010000000
1!
1&
b011101111 ,
1.
b011101111 4
b011110000 5
#5020000000
0!
0&
0.
#5030000000
1!
1&
b011110000 ,
1.
b011110000 4
b011110001 5
#5040000000
0!
0&
0.
#5050000000
1!
1&
b011110001 ,
1.
b011110001 4
b011110010 5
#5060000000
0!
0&
0.
#5070000000
1!
1&
b011110010 ,
1.
b011110010 4
b011110011 5
#5080000000
0!
0&
0.
#5090000000
1!
1&
b011110011 ,
1.
b011110011 4
b011110100 5
#5100000000
0!
0&
0.
#5110000000
1!
1&
b011110100 ,
1.
b011110100 4
b011110101 5
#5120000000
0!
0&
0.
#5130000000
1!
1&
b011110101 ,
1.
b011110101 4
b011110110 5
#5140000000
0!
0&
0.
#5150000000
1!
1&
b011110110 ,
1.
b011110110 4
b011110111 5
#5160000000
0!
0&
0.
#5170000000
1!
1&
b011110111 ,
1.
b011110111 4
b011111000 5
#5180000000
0!
0&
0.
#5190000000
1!
1&
b011111000 ,
1.
b011111000 4
b011111001 5
#5200000000
0!
0&
0.
#5210000000
1!
1&
b011111001 ,
1.
b011111001 4
b011111010 5
#5220000000
0!
0&
0.
#5230000000
1!
1&
b011111010 ,
1.
b011111010 4
b011111011 5
#5240000000
0!
0&
0.
#5250000000
1!
1&
b011111011 ,
1.
b011111011 4
b011111100 5
#5260000000
0!
0&
0.
#5270000000
1!
1&
b011111100 ,
1.
b011111100 4
b011111101 5
#5280000000
0!
0&
0.
#5290000000
1!
1&
b011111101 ,
1.
b011111101 4
b011111110 5
#5300000000
0!
0&
0.
#5310000000
1!
1&
b011111110 ,
1.
b011111110 4
b011111111 5
#5320000000
0!
0&
0.
#5330000000
1!
1&
b011111111 ,
1.
b011111111 4
b100000000 5
#5340000000
0!
0&
0.
#5350000000
1!
1&
b100000000 ,
1.
b100000000 4
b100000001 5
#5360000000
0!
0&
0.
#5370000000
1!
1&
b100000001 ,
1.
b100000001 4
b100000010 5
#5380000000
0!
0&
0.
#5390000000
1!
1&
b100000010 ,
1.
b100000010 4
b100000011 5
#5400000000
0!
0&
0.
#5410000000
1!
1&
b100000011 ,
1.
b100000011 4
b100000100 5
#5420000000
0!
0&
0.
#5430000000
1!
1&
b100000100 ,
1.
b100000100 4
b100000101 5
#5440000000
0!
0&
0.
#5450000000
1!
1&
b100000101 ,
1.
b100000101 4
b100000110 5
#5460000000
0!
0&
0.
#5470000000
1!
1&
b100000110 ,
1.
b100000110 4
b100000111 5
#5480000000
0!
0&
0.
#5490000000
1!
1&
b100000111 ,
1.
b100000111 4
b100001000 5
#5500000000
0!
0&
0.
#5510000000
1!
1&
b100001000 ,
1.
b100001000 4
b100001001 5
#5520000000
0!
0&
0.
#5530000000
1!
1&
b100001001 ,
1.
b100001001 4
b100001010 5
#5540000000
0!
0&
0.
#5550000000
1!
1&
b100001010 ,
1.
b100001010 4
b100001011 5
#5560000000
0!
0&
0.
#5570000000
1!
1&
b100001011 ,
1.
b100001011 4
b100001100 5
#5580000000
0!
0&
0.
#5590000000
1!
1&
b100001100 ,
1.
b100001100 4
b100001101 5
#5600000000
0!
0&
0.
#5610000000
1!
1&
b100001101 ,
1.
b100001101 4
b100001110 5
#5620000000
0!
0&
0.
#5630000000
1!
1&
b100001110 ,
1.
b100001110 4
b100001111 5
#5640000000
0!
0&
0.
#5650000000
1!
1&
b100001111 ,
1.
b100001111 4
b100010000 5
#5660000000
0!
0&
0.
